Group Assignment 1
================

## Load Data

You can include R code in the document as follows:

``` r
sales <- read_excel("sales-data_clean.xlsx")
sales
```

    ## # A tibble: 225 x 5
    ##     Item  Week Price Sales Remaining_Inventory
    ##    <dbl> <dbl> <dbl> <dbl>               <dbl>
    ##  1     1     1    60    57                1943
    ##  2     1     2    60    98                1845
    ##  3     1     3    60    55                1790
    ##  4     1     4    60    41                1749
    ##  5     1     5    60    60                1689
    ##  6     1     6    60    39                1650
    ##  7     1     7    54   106                1544
    ##  8     1     8    54    55                1489
    ##  9     1     9    54    64                1425
    ## 10     1    10    54    43                1382
    ## # ... with 215 more rows
…
``` r
sales['markdown'] <- NA
for (i in seq(1, nrow(sales), by=15)) {
  j = i+13
  for (k in i:j) {
    if (sales[k, 'Price'] != sales[k+1, 'Price']) {
      sales[k+1, 'markdown'] <- (60 - sales[k+1, 'Price'])/60*100
    }
  }
}
sales
```

    ## # A tibble: 225 x 6
    ##     Item  Week Price Sales Remaining_Inventory markdown
    ##    <dbl> <dbl> <dbl> <dbl>               <dbl>    <dbl>
    ##  1     1     1    60    57                1943       NA
    ##  2     1     2    60    98                1845       NA
    ##  3     1     3    60    55                1790       NA
    ##  4     1     4    60    41                1749       NA
    ##  5     1     5    60    60                1689       NA
    ##  6     1     6    60    39                1650       NA
    ##  7     1     7    54   106                1544       10
    ##  8     1     8    54    55                1489       NA
    ##  9     1     9    54    64                1425       NA
    ## 10     1    10    54    43                1382       NA
    ## # ... with 215 more rows
…
# Add sales difference column

``` r
sales['sales_diff'] <- NA
for (i in seq(1, nrow(sales), by=15)) {
  j = i+13
  for (k in i:j) {
    sales[k+1, 'sales_diff'] <- round((sales[k+1, 'Sales'] - sales[k, 'Sales']) / sales[k, 'Sales'], 2)
  }
}
sales
```

    ## # A tibble: 225 x 7
    ##     Item  Week Price Sales Remaining_Inventory markdown sales_diff
    ##    <dbl> <dbl> <dbl> <dbl>               <dbl>    <dbl>      <dbl>
    ##  1     1     1    60    57                1943       NA      NA   
    ##  2     1     2    60    98                1845       NA       0.72
    ##  3     1     3    60    55                1790       NA      -0.44
    ##  4     1     4    60    41                1749       NA      -0.25
    ##  5     1     5    60    60                1689       NA       0.46
    ##  6     1     6    60    39                1650       NA      -0.35
    ##  7     1     7    54   106                1544       10       1.72
    ##  8     1     8    54    55                1489       NA      -0.48
    ##  9     1     9    54    64                1425       NA       0.16
    ## 10     1    10    54    43                1382       NA      -0.33
    ## # ... with 215 more rows
…
